ç«ä»·æ¶é´,ä¸ªäººæä½æäº¤ä»·,ä¸ªäººå¹³åæäº¤ä»·,åä½æä½æäº¤ä»·,åä½å¹³åæäº¤ä»·
2022å¹´9æ26æ¥~new~,17000,18616,18600,20595
2022å¹´8æ25æ¥,17300,18593,16900,20372
2022å¹´7æ25æ¥,17000,18329,15000,20381
2022å¹´6æ27æ¥,16600,18311,10000,32871
2022å¹´5æ25æ¥,16500,17555,32000,40992
2022å¹´4æ25æ¥,15200,16221,38500,40464
2022å¹´3æ25æ¥,13900,15392,35700,37760
2022å¹´2æ25æ¥,12800,17105,33500,35970
2022å¹´1æ25æ¥,15000,19692,31000,32618
2021å¹´12æ27æ¥,18800,21543,28000,30775
2021å¹´11æ25æ¥,20000,21557,25900,28535
2021å¹´10æ25æ¥,20000,21524,24800,28819
2021å¹´9æ26æ¥,20000,21615,25000,29955
2021å¹´8æ25æ¥,20000,22687,28000,37841
2021å¹´7æ26æ¥,21000,24914,37800,49138
2021å¹´6æ25æ¥,22800,27542,45000,62128
2021å¹´5æ25æ¥,26500,29423,60900,63757
2021å¹´4æ25æ¥,25900,27142,53900,56205
2021å¹´3æ25æ¥,23500,24826,46200,48350
2021å¹´2æ25æ¥,21000,22494,39800,41983
2021å¹´1æ25æ¥,20000,21960,34800,39309
2020å¹´12æ25æ¥,19700,21711,37600,40356
2020å¹´11æ25æ¥,16300,18217,29400,31520
2020å¹´10æ26æ¥,13800,20025,23500,25366
2020å¹´9æ25æ¥,18500,26837,18200,19354
2020å¹´8æ25æ¥,25800,30005,14600,15555
2020å¹´7æ27æ¥,24800,26011,12000,13418
2020å¹´6æ28æ¥,20900,21929,10000,12446
2020å¹´5æ25æ¥,17800,18918,10000,12581
2020å¹´4æ26æ¥,15200,17820,10000,15306
2020å¹´3æ25æ¥,17200,18495,14800,16474
2020å¹´2æ25æ¥,16000,17086,13000,14612
2020å¹´2æ3æ¥,14800,16050,11800,13461
2019å¹´12æ25æ¥,13800,15461,10000,12411
2019å¹´11æ25æ¥,13200,15917,10000,12835
2019å¹´10æ25æ¥,10000,20306,10000,13567
2019å¹´9æ26æ¥,20200,24164,10000,17071
2019å¹´8æ26æ¥,21800,23779,14500,18542
2019å¹´7æ25æ¥,18800,22047,12100,18842
2019å¹´6æ25æ¥,14100,28966,10000,32803
2019å¹´5æ27æ¥,40000,42846,40100,59223
2019å¹´4æ25æ¥,38600,40395,55000,59376
2019å¹´3æ25æ¥,36000,37953,52100,55791
2019å¹´2æ25æ¥,33000,36240,47800,52206
2019å¹´1æ25æ¥,33900,39196,46000,51488
2018å¹´12æ25æ¥,37000,40985,42300,46032
2018å¹´11æ26æ¥,36800,39585,32300,35922
2018å¹´10æ25æ¥,33100,35434,24200,26597
2018å¹´9æ25æ¥,29700,32205,17200,22696
2018å¹´8æ27æ¥,25500,31654,12000,25880
2018å¹´7æ25æ¥,12100,56152,10000,70079
2018å¹´6æ25æ¥,52000,57283,62800,77611
2018å¹´5æ25æ¥,41300,44225,62000,68498
2018å¹´4æ25æ¥,32100,34455,51000,56158
2018å¹´3æ26æ¥,25300,26939,39100,41653
2018å¹´2æ26æ¥,22800,24560,32200,34718
2018å¹´1æ25æ¥,21000,25213,28000,30832
2017å¹´12æ25æ¥,18000,32312,24000,26123
2017å¹´11æ27æ¥,30700,34046,16800,18982
2017å¹´10æ25æ¥,30000,32449,13800,18038
2017å¹´9æ25æ¥,28800,30535,11800,15659
2017å¹´8æ25æ¥,26800,28561,10800,11663
2017å¹´7æ25æ¥,25000,26668,10100,11170
2017å¹´6æ26æ¥,23900,25498,10000,11136
2017å¹´5æ25æ¥,21500,22996,10000,11063
2017å¹´4æ25æ¥,18900,20127,10000,11061
2017å¹´3æ27æ¥,17300,18358,10000,10945
2017å¹´2æ28æ¥,15900,17419,10000,11114
2017å¹´1æ25æ¥,15100,17508,10000,11093
2016å¹´12æ26æ¥,15300,20591,10000,10905
2016å¹´11æ25æ¥,18600,22300,10000,11427
2016å¹´10æ25æ¥,19500,21551,10000,11269
2016å¹´9æ26æ¥,18100,19614,10000,11277
2016å¹´8æ25æ¥,15100,17330,10000,11114
2016å¹´7æ25æ¥,10100,24324,10000,11355
2016å¹´6æ27æ¥,23400,28541,10000,11420
2016å¹´5æ25æ¥,25000,27127,10000,11186
2016å¹´4æ25æ¥,23800,25701,10000,11496
2016å¹´3æ25æ¥,21100,23315,10000,11513
2016å¹´2æ25æ¥,19500,21884,10000,11560
2016å¹´1æ25æ¥,21000,25727,10000,12106
2015å¹´12æ25æ¥,24600,27077,10000,12009
2015å¹´11æ25æ¥,19000,20609,10000,11811
2015å¹´10æ26æ¥,16000,17487,10000,11254
2015å¹´9æ25æ¥,13500,16886,10000,11590
2015å¹´8æ25æ¥,10000,36231,10000,11878
2015å¹´7æ27æ¥,35000,37805,10000,12152
2015å¹´6æ25æ¥,26000,27672,10000,11822
2015å¹´5æ25æ¥,20200,21506,10000,11604
2015å¹´4æ27æ¥,16800,17798,10000,11593
2015å¹´3æ25æ¥,14500,15436,10000,11883
2015å¹´2æ25æ¥,13200,14331,10000,12391
2015å¹´1æ25æ¥,12000,13137,10000,11882
2014å¹´12æ25æ¥,10300,11421,10000,11604
2014å¹´11æ25æ¥,10000,11207,10000,11614
2014å¹´10æ25æ¥,10000,11442,10000,11836
2014å¹´9æ25æ¥,10000,12382,10000,11997
2014å¹´8æ26æ¥,10000,16654,10000,12375
2014å¹´7æ25æ¥,14800,18310,10000,12845
2014å¹´6æ26æ¥,16000,17024,10000,13134
2014å¹´5æ27æ¥,14500,15391,11000,12902
2014å¹´4æ26æ¥,13100,14074,10800,12452
2014å¹´3æ27æ¥,12300,13085,10300,12203
2014å¹´2æ25æ¥,11600,12777,10000,12494
2014å¹´1æ26æ¥,11500,12541,10000,12601
2013å¹´12æ25æ¥,10700,11959,10000,12958
2013å¹´11æ25æ¥,10000,11813,10000,14304
2013å¹´10æ25æ¥,10000,16384,10000,19510
2013å¹´09æ25æ¥,10000,30802,18000,20643
2013å¹´08æ26æ¥,23900,26599,15100,17385
2013å¹´07æ25æ¥,18700,20631,12500,14789
2013å¹´06æ25æ¥,14000,15743,10000,13117
2013å¹´05æ27æ¥,11600,12627,10000,12548
2013å¹´04æ25æ¥,10000,10998,10000,12017
2013å¹´03æ25æ¥,10000,10585,10000,11688
2013å¹´02æ25æ¥,10000,10573,10000,11762
2013å¹´01æ25æ¥,10000,10854,10000,12583
2012å¹´12æ25æ¥,10000,10955,10000,12303
2012å¹´11æ26æ¥,10000,10779,10000,12575
2012å¹´10æ25æ¥,10000,11067,10000,12674
2012å¹´09æ25æ¥,10000,14138,10000,15978
2012å¹´08æ28æ¥,10000,22822,10000,25515
ç«ä»·æ¶é´,ä¸ªäººæä½æäº¤ä»·,ä¸ªäººå¹³åæäº¤ä»·,åä½æä½æäº¤ä»·,åä½å¹³åæäº¤ä»·
2022å¹´9æ26æ¥~new~,17000,18616,18600,20595
2022å¹´8æ25æ¥,17300,18593,16900,20372
2022å¹´7æ25æ¥,17000,18329,15000,20381
2022å¹´6æ27æ¥,16600,18311,10000,32871
2022å¹´5æ25æ¥,16500,17555,32000,40992
2022å¹´4æ25æ¥,15200,16221,38500,40464
2022å¹´3æ25æ¥,13900,15392,35700,37760
2022å¹´2æ25æ¥,12800,17105,33500,35970
2022å¹´1æ25æ¥,15000,19692,31000,32618
2021å¹´12æ27æ¥,18800,21543,28000,30775
2021å¹´11æ25æ¥,20000,21557,25900,28535
2021å¹´10æ25æ¥,20000,21524,24800,28819
2021å¹´9æ26æ¥,20000,21615,25000,29955
2021å¹´8æ25æ¥,20000,22687,28000,37841
2021å¹´7æ26æ¥,21000,24914,37800,49138
2021å¹´6æ25æ¥,22800,27542,45000,62128
2021å¹´5æ25æ¥,26500,29423,60900,63757
2021å¹´4æ25æ¥,25900,27142,53900,56205
2021å¹´3æ25æ¥,23500,24826,46200,48350
2021å¹´2æ25æ¥,21000,22494,39800,41983
2021å¹´1æ25æ¥,20000,21960,34800,39309
2020å¹´12æ25æ¥,19700,21711,37600,40356
2020å¹´11æ25æ¥,16300,18217,29400,31520
2020å¹´10æ26æ¥,13800,20025,23500,25366
2020å¹´9æ25æ¥,18500,26837,18200,19354
2020å¹´8æ25æ¥,25800,30005,14600,15555
2020å¹´7æ27æ¥,24800,26011,12000,13418
2020å¹´6æ28æ¥,20900,21929,10000,12446
2020å¹´5æ25æ¥,17800,18918,10000,12581
2020å¹´4æ26æ¥,15200,17820,10000,15306
2020å¹´3æ25æ¥,17200,18495,14800,16474
2020å¹´2æ25æ¥,16000,17086,13000,14612
2020å¹´2æ3æ¥,14800,16050,11800,13461
2019å¹´12æ25æ¥,13800,15461,10000,12411
2019å¹´11æ25æ¥,13200,15917,10000,12835
2019å¹´10æ25æ¥,10000,20306,10000,13567
2019å¹´9æ26æ¥,20200,24164,10000,17071
2019å¹´8æ26æ¥,21800,23779,14500,18542
2019å¹´7æ25æ¥,18800,22047,12100,18842
2019å¹´6æ25æ¥,14100,28966,10000,32803
2019å¹´5æ27æ¥,40000,42846,40100,59223
2019å¹´4æ25æ¥,38600,40395,55000,59376
2019å¹´3æ25æ¥,36000,37953,52100,55791
2019å¹´2æ25æ¥,33000,36240,47800,52206
2019å¹´1æ25æ¥,33900,39196,46000,51488
2018å¹´12æ25æ¥,37000,40985,42300,46032
2018å¹´11æ26æ¥,36800,39585,32300,35922
2018å¹´10æ25æ¥,33100,35434,24200,26597
2018å¹´9æ25æ¥,29700,32205,17200,22696
2018å¹´8æ27æ¥,25500,31654,12000,25880
2018å¹´7æ25æ¥,12100,56152,10000,70079
2018å¹´6æ25æ¥,52000,57283,62800,77611
2018å¹´5æ25æ¥,41300,44225,62000,68498
2018å¹´4æ25æ¥,32100,34455,51000,56158
2018å¹´3æ26æ¥,25300,26939,39100,41653
2018å¹´2æ26æ¥,22800,24560,32200,34718
2018å¹´1æ25æ¥,21000,25213,28000,30832
2017å¹´12æ25æ¥,18000,32312,24000,26123
2017å¹´11æ27æ¥,30700,34046,16800,18982
2017å¹´10æ25æ¥,30000,32449,13800,18038
2017å¹´9æ25æ¥,28800,30535,11800,15659
2017å¹´8æ25æ¥,26800,28561,10800,11663
2017å¹´7æ25æ¥,25000,26668,10100,11170
2017å¹´6æ26æ¥,23900,25498,10000,11136
2017å¹´5æ25æ¥,21500,22996,10000,11063
2017å¹´4æ25æ¥,18900,20127,10000,11061
2017å¹´3æ27æ¥,17300,18358,10000,10945
2017å¹´2æ28æ¥,15900,17419,10000,11114
2017å¹´1æ25æ¥,15100,17508,10000,11093
2016å¹´12æ26æ¥,15300,20591,10000,10905
2016å¹´11æ25æ¥,18600,22300,10000,11427
2016å¹´10æ25æ¥,19500,21551,10000,11269
2016å¹´9æ26æ¥,18100,19614,10000,11277
2016å¹´8æ25æ¥,15100,17330,10000,11114
2016å¹´7æ25æ¥,10100,24324,10000,11355
2016å¹´6æ27æ¥,23400,28541,10000,11420
2016å¹´5æ25æ¥,25000,27127,10000,11186
2016å¹´4æ25æ¥,23800,25701,10000,11496
2016å¹´3æ25æ¥,21100,23315,10000,11513
2016å¹´2æ25æ¥,19500,21884,10000,11560
2016å¹´1æ25æ¥,21000,25727,10000,12106
2015å¹´12æ25æ¥,24600,27077,10000,12009
2015å¹´11æ25æ¥,19000,20609,10000,11811
2015å¹´10æ26æ¥,16000,17487,10000,11254
2015å¹´9æ25æ¥,13500,16886,10000,11590
2015å¹´8æ25æ¥,10000,36231,10000,11878
2015å¹´7æ27æ¥,35000,37805,10000,12152
2015å¹´6æ25æ¥,26000,27672,10000,11822
2015å¹´5æ25æ¥,20200,21506,10000,11604
2015å¹´4æ27æ¥,16800,17798,10000,11593
2015å¹´3æ25æ¥,14500,15436,10000,11883
2015å¹´2æ25æ¥,13200,14331,10000,12391
2015å¹´1æ25æ¥,12000,13137,10000,11882
2014å¹´12æ25æ¥,10300,11421,10000,11604
2014å¹´11æ25æ¥,10000,11207,10000,11614
2014å¹´10æ25æ¥,10000,11442,10000,11836
2014å¹´9æ25æ¥,10000,12382,10000,11997
2014å¹´8æ26æ¥,10000,16654,10000,12375
2014å¹´7æ25æ¥,14800,18310,10000,12845
2014å¹´6æ26æ¥,16000,17024,10000,13134
2014å¹´5æ27æ¥,14500,15391,11000,12902
2014å¹´4æ26æ¥,13100,14074,10800,12452
2014å¹´3æ27æ¥,12300,13085,10300,12203
2014å¹´2æ25æ¥,11600,12777,10000,12494
2014å¹´1æ26æ¥,11500,12541,10000,12601
2013å¹´12æ25æ¥,10700,11959,10000,12958
2013å¹´11æ25æ¥,10000,11813,10000,14304
2013å¹´10æ25æ¥,10000,16384,10000,19510
2013å¹´09æ25æ¥,10000,30802,18000,20643
2013å¹´08æ26æ¥,23900,26599,15100,17385
2013å¹´07æ25æ¥,18700,20631,12500,14789
2013å¹´06æ25æ¥,14000,15743,10000,13117
2013å¹´05æ27æ¥,11600,12627,10000,12548
2013å¹´04æ25æ¥,10000,10998,10000,12017
2013å¹´03æ25æ¥,10000,10585,10000,11688
2013å¹´02æ25æ¥,10000,10573,10000,11762
2013å¹´01æ25æ¥,10000,10854,10000,12583
2012å¹´12æ25æ¥,10000,10955,10000,12303
2012å¹´11æ26æ¥,10000,10779,10000,12575
2012å¹´10æ25æ¥,10000,11067,10000,12674
2012å¹´09æ25æ¥,10000,14138,10000,15978
2012å¹´08æ28æ¥,10000,22822,10000,25515
ç«ä»·æ¶é´,ä¸ªäººæä½æäº¤ä»·,ä¸ªäººå¹³åæäº¤ä»·,åä½æä½æäº¤ä»·,åä½å¹³åæäº¤ä»·
2022å¹´9æ26æ¥~new~,17000,18616,18600,20595
2022å¹´8æ25æ¥,17300,18593,16900,20372
2022å¹´7æ25æ¥,17000,18329,15000,20381
2022å¹´6æ27æ¥,16600,18311,10000,32871
2022å¹´5æ25æ¥,16500,17555,32000,40992
2022å¹´4æ25æ¥,15200,16221,38500,40464
2022å¹´3æ25æ¥,13900,15392,35700,37760
2022å¹´2æ25æ¥,12800,17105,33500,35970
2022å¹´1æ25æ¥,15000,19692,31000,32618
2021å¹´12æ27æ¥,18800,21543,28000,30775
2021å¹´11æ25æ¥,20000,21557,25900,28535
2021å¹´10æ25æ¥,20000,21524,24800,28819
2021å¹´9æ26æ¥,20000,21615,25000,29955
2021å¹´8æ25æ¥,20000,22687,28000,37841
2021å¹´7æ26æ¥,21000,24914,37800,49138
2021å¹´6æ25æ¥,22800,27542,45000,62128
2021å¹´5æ25æ¥,26500,29423,60900,63757
2021å¹´4æ25æ¥,25900,27142,53900,56205
2021å¹´3æ25æ¥,23500,24826,46200,48350
2021å¹´2æ25æ¥,21000,22494,39800,41983
2021å¹´1æ25æ¥,20000,21960,34800,39309
2020å¹´12æ25æ¥,19700,21711,37600,40356
2020å¹´11æ25æ¥,16300,18217,29400,31520
2020å¹´10æ26æ¥,13800,20025,23500,25366
2020å¹´9æ25æ¥,18500,26837,18200,19354
2020å¹´8æ25æ¥,25800,30005,14600,15555
2020å¹´7æ27æ¥,24800,26011,12000,13418
2020å¹´6æ28æ¥,20900,21929,10000,12446
2020å¹´5æ25æ¥,17800,18918,10000,12581
2020å¹´4æ26æ¥,15200,17820,10000,15306
2020å¹´3æ25æ¥,17200,18495,14800,16474
2020å¹´2æ25æ¥,16000,17086,13000,14612
2020å¹´2æ3æ¥,14800,16050,11800,13461
2019å¹´12æ25æ¥,13800,15461,10000,12411
2019å¹´11æ25æ¥,13200,15917,10000,12835
2019å¹´10æ25æ¥,10000,20306,10000,13567
2019å¹´9æ26æ¥,20200,24164,10000,17071
2019å¹´8æ26æ¥,21800,23779,14500,18542
2019å¹´7æ25æ¥,18800,22047,12100,18842
2019å¹´6æ25æ¥,14100,28966,10000,32803
2019å¹´5æ27æ¥,40000,42846,40100,59223
2019å¹´4æ25æ¥,38600,40395,55000,59376
2019å¹´3æ25æ¥,36000,37953,52100,55791
2019å¹´2æ25æ¥,33000,36240,47800,52206
2019å¹´1æ25æ¥,33900,39196,46000,51488
2018å¹´12æ25æ¥,37000,40985,42300,46032
2018å¹´11æ26æ¥,36800,39585,32300,35922
2018å¹´10æ25æ¥,33100,35434,24200,26597
2018å¹´9æ25æ¥,29700,32205,17200,22696
2018å¹´8æ27æ¥,25500,31654,12000,25880
2018å¹´7æ25æ¥,12100,56152,10000,70079
2018å¹´6æ25æ¥,52000,57283,62800,77611
2018å¹´5æ25æ¥,41300,44225,62000,68498
2018å¹´4æ25æ¥,32100,34455,51000,56158
2018å¹´3æ26æ¥,25300,26939,39100,41653
2018å¹´2æ26æ¥,22800,24560,32200,34718
2018å¹´1æ25æ¥,21000,25213,28000,30832
2017å¹´12æ25æ¥,18000,32312,24000,26123
2017å¹´11æ27æ¥,30700,34046,16800,18982
2017å¹´10æ25æ¥,30000,32449,13800,18038
2017å¹´9æ25æ¥,28800,30535,11800,15659
2017å¹´8æ25æ¥,26800,28561,10800,11663
2017å¹´7æ25æ¥,25000,26668,10100,11170
2017å¹´6æ26æ¥,23900,25498,10000,11136
2017å¹´5æ25æ¥,21500,22996,10000,11063
2017å¹´4æ25æ¥,18900,20127,10000,11061
2017å¹´3æ27æ¥,17300,18358,10000,10945
2017å¹´2æ28æ¥,15900,17419,10000,11114
2017å¹´1æ25æ¥,15100,17508,10000,11093
2016å¹´12æ26æ¥,15300,20591,10000,10905
2016å¹´11æ25æ¥,18600,22300,10000,11427
2016å¹´10æ25æ¥,19500,21551,10000,11269
2016å¹´9æ26æ¥,18100,19614,10000,11277
2016å¹´8æ25æ¥,15100,17330,10000,11114
2016å¹´7æ25æ¥,10100,24324,10000,11355
2016å¹´6æ27æ¥,23400,28541,10000,11420
2016å¹´5æ25æ¥,25000,27127,10000,11186
2016å¹´4æ25æ¥,23800,25701,10000,11496
2016å¹´3æ25æ¥,21100,23315,10000,11513
2016å¹´2æ25æ¥,19500,21884,10000,11560
2016å¹´1æ25æ¥,21000,25727,10000,12106
2015å¹´12æ25æ¥,24600,27077,10000,12009
2015å¹´11æ25æ¥,19000,20609,10000,11811
2015å¹´10æ26æ¥,16000,17487,10000,11254
2015å¹´9æ25æ¥,13500,16886,10000,11590
2015å¹´8æ25æ¥,10000,36231,10000,11878
2015å¹´7æ27æ¥,35000,37805,10000,12152
2015å¹´6æ25æ¥,26000,27672,10000,11822
2015å¹´5æ25æ¥,20200,21506,10000,11604
2015å¹´4æ27æ¥,16800,17798,10000,11593
2015å¹´3æ25æ¥,14500,15436,10000,11883
2015å¹´2æ25æ¥,13200,14331,10000,12391
2015å¹´1æ25æ¥,12000,13137,10000,11882
2014å¹´12æ25æ¥,10300,11421,10000,11604
2014å¹´11æ25æ¥,10000,11207,10000,11614
2014å¹´10æ25æ¥,10000,11442,10000,11836
2014å¹´9æ25æ¥,10000,12382,10000,11997
2014å¹´8æ26æ¥,10000,16654,10000,12375
2014å¹´7æ25æ¥,14800,18310,10000,12845
2014å¹´6æ26æ¥,16000,17024,10000,13134
2014å¹´5æ27æ¥,14500,15391,11000,12902
2014å¹´4æ26æ¥,13100,14074,10800,12452
2014å¹´3æ27æ¥,12300,13085,10300,12203
2014å¹´2æ25æ¥,11600,12777,10000,12494
2014å¹´1æ26æ¥,11500,12541,10000,12601
2013å¹´12æ25æ¥,10700,11959,10000,12958
2013å¹´11æ25æ¥,10000,11813,10000,14304
2013å¹´10æ25æ¥,10000,16384,10000,19510
2013å¹´09æ25æ¥,10000,30802,18000,20643
2013å¹´08æ26æ¥,23900,26599,15100,17385
2013å¹´07æ25æ¥,18700,20631,12500,14789
2013å¹´06æ25æ¥,14000,15743,10000,13117
2013å¹´05æ27æ¥,11600,12627,10000,12548
2013å¹´04æ25æ¥,10000,10998,10000,12017
2013å¹´03æ25æ¥,10000,10585,10000,11688
2013å¹´02æ25æ¥,10000,10573,10000,11762
2013å¹´01æ25æ¥,10000,10854,10000,12583
2012å¹´12æ25æ¥,10000,10955,10000,12303
2012å¹´11æ26æ¥,10000,10779,10000,12575
2012å¹´10æ25æ¥,10000,11067,10000,12674
2012å¹´09æ25æ¥,10000,14138,10000,15978
2012å¹´08æ28æ¥,10000,22822,10000,25515
ç«ä»·æ¶é´,ä¸ªäººæä½æäº¤ä»·,ä¸ªäººå¹³åæäº¤ä»·,åä½æä½æäº¤ä»·,åä½å¹³åæäº¤ä»·
2022å¹´9æ26æ¥~new~,17000,18616,18600,20595
2022å¹´8æ25æ¥,17300,18593,16900,20372
2022å¹´7æ25æ¥,17000,18329,15000,20381
2022å¹´6æ27æ¥,16600,18311,10000,32871
2022å¹´5æ25æ¥,16500,17555,32000,40992
2022å¹´4æ25æ¥,15200,16221,38500,40464
2022å¹´3æ25æ¥,13900,15392,35700,37760
2022å¹´2æ25æ¥,12800,17105,33500,35970
2022å¹´1æ25æ¥,15000,19692,31000,32618
2021å¹´12æ27æ¥,18800,21543,28000,30775
2021å¹´11æ25æ¥,20000,21557,25900,28535
2021å¹´10æ25æ¥,20000,21524,24800,28819
2021å¹´9æ26æ¥,20000,21615,25000,29955
2021å¹´8æ25æ¥,20000,22687,28000,37841
2021å¹´7æ26æ¥,21000,24914,37800,49138
2021å¹´6æ25æ¥,22800,27542,45000,62128
2021å¹´5æ25æ¥,26500,29423,60900,63757
2021å¹´4æ25æ¥,25900,27142,53900,56205
2021å¹´3æ25æ¥,23500,24826,46200,48350
2021å¹´2æ25æ¥,21000,22494,39800,41983
2021å¹´1æ25æ¥,20000,21960,34800,39309
2020å¹´12æ25æ¥,19700,21711,37600,40356
2020å¹´11æ25æ¥,16300,18217,29400,31520
2020å¹´10æ26æ¥,13800,20025,23500,25366
2020å¹´9æ25æ¥,18500,26837,18200,19354
2020å¹´8æ25æ¥,25800,30005,14600,15555
2020å¹´7æ27æ¥,24800,26011,12000,13418
2020å¹´6æ28æ¥,20900,21929,10000,12446
2020å¹´5æ25æ¥,17800,18918,10000,12581
2020å¹´4æ26æ¥,15200,17820,10000,15306
2020å¹´3æ25æ¥,17200,18495,14800,16474
2020å¹´2æ25æ¥,16000,17086,13000,14612
2020å¹´2æ3æ¥,14800,16050,11800,13461
2019å¹´12æ25æ¥,13800,15461,10000,12411
2019å¹´11æ25æ¥,13200,15917,10000,12835
2019å¹´10æ25æ¥,10000,20306,10000,13567
2019å¹´9æ26æ¥,20200,24164,10000,17071
2019å¹´8æ26æ¥,21800,23779,14500,18542
2019å¹´7æ25æ¥,18800,22047,12100,18842
2019å¹´6æ25æ¥,14100,28966,10000,32803
2019å¹´5æ27æ¥,40000,42846,40100,59223
2019å¹´4æ25æ¥,38600,40395,55000,59376
2019å¹´3æ25æ¥,36000,37953,52100,55791
2019å¹´2æ25æ¥,33000,36240,47800,52206
2019å¹´1æ25æ¥,33900,39196,46000,51488
2018å¹´12æ25æ¥,37000,40985,42300,46032
2018å¹´11æ26æ¥,36800,39585,32300,35922
2018å¹´10æ25æ¥,33100,35434,24200,26597
2018å¹´9æ25æ¥,29700,32205,17200,22696
2018å¹´8æ27æ¥,25500,31654,12000,25880
2018å¹´7æ25æ¥,12100,56152,10000,70079
2018å¹´6æ25æ¥,52000,57283,62800,77611
2018å¹´5æ25æ¥,41300,44225,62000,68498
2018å¹´4æ25æ¥,32100,34455,51000,56158
2018å¹´3æ26æ¥,25300,26939,39100,41653
2018å¹´2æ26æ¥,22800,24560,32200,34718
2018å¹´1æ25æ¥,21000,25213,28000,30832
2017å¹´12æ25æ¥,18000,32312,24000,26123
2017å¹´11æ27æ¥,30700,34046,16800,18982
2017å¹´10æ25æ¥,30000,32449,13800,18038
2017å¹´9æ25æ¥,28800,30535,11800,15659
2017å¹´8æ25æ¥,26800,28561,10800,11663
2017å¹´7æ25æ¥,25000,26668,10100,11170
2017å¹´6æ26æ¥,23900,25498,10000,11136
2017å¹´5æ25æ¥,21500,22996,10000,11063
2017å¹´4æ25æ¥,18900,20127,10000,11061
2017å¹´3æ27æ¥,17300,18358,10000,10945
2017å¹´2æ28æ¥,15900,17419,10000,11114
2017å¹´1æ25æ¥,15100,17508,10000,11093
2016å¹´12æ26æ¥,15300,20591,10000,10905
2016å¹´11æ25æ¥,18600,22300,10000,11427
2016å¹´10æ25æ¥,19500,21551,10000,11269
2016å¹´9æ26æ¥,18100,19614,10000,11277
2016å¹´8æ25æ¥,15100,17330,10000,11114
2016å¹´7æ25æ¥,10100,24324,10000,11355
2016å¹´6æ27æ¥,23400,28541,10000,11420
2016å¹´5æ25æ¥,25000,27127,10000,11186
2016å¹´4æ25æ¥,23800,25701,10000,11496
2016å¹´3æ25æ¥,21100,23315,10000,11513
2016å¹´2æ25æ¥,19500,21884,10000,11560
2016å¹´1æ25æ¥,21000,25727,10000,12106
2015å¹´12æ25æ¥,24600,27077,10000,12009
2015å¹´11æ25æ¥,19000,20609,10000,11811
2015å¹´10æ26æ¥,16000,17487,10000,11254
2015å¹´9æ25æ¥,13500,16886,10000,11590
2015å¹´8æ25æ¥,10000,36231,10000,11878
2015å¹´7æ27æ¥,35000,37805,10000,12152
2015å¹´6æ25æ¥,26000,27672,10000,11822
2015å¹´5æ25æ¥,20200,21506,10000,11604
2015å¹´4æ27æ¥,16800,17798,10000,11593
2015å¹´3æ25æ¥,14500,15436,10000,11883
2015å¹´2æ25æ¥,13200,14331,10000,12391
2015å¹´1æ25æ¥,12000,13137,10000,11882
2014å¹´12æ25æ¥,10300,11421,10000,11604
2014å¹´11æ25æ¥,10000,11207,10000,11614
2014å¹´10æ25æ¥,10000,11442,10000,11836
2014å¹´9æ25æ¥,10000,12382,10000,11997
2014å¹´8æ26æ¥,10000,16654,10000,12375
2014å¹´7æ25æ¥,14800,18310,10000,12845
2014å¹´6æ26æ¥,16000,17024,10000,13134
2014å¹´5æ27æ¥,14500,15391,11000,12902
2014å¹´4æ26æ¥,13100,14074,10800,12452
2014å¹´3æ27æ¥,12300,13085,10300,12203
2014å¹´2æ25æ¥,11600,12777,10000,12494
2014å¹´1æ26æ¥,11500,12541,10000,12601
2013å¹´12æ25æ¥,10700,11959,10000,12958
2013å¹´11æ25æ¥,10000,11813,10000,14304
2013å¹´10æ25æ¥,10000,16384,10000,19510
2013å¹´09æ25æ¥,10000,30802,18000,20643
2013å¹´08æ26æ¥,23900,26599,15100,17385
2013å¹´07æ25æ¥,18700,20631,12500,14789
2013å¹´06æ25æ¥,14000,15743,10000,13117
2013å¹´05æ27æ¥,11600,12627,10000,12548
2013å¹´04æ25æ¥,10000,10998,10000,12017
2013å¹´03æ25æ¥,10000,10585,10000,11688
2013å¹´02æ25æ¥,10000,10573,10000,11762
2013å¹´01æ25æ¥,10000,10854,10000,12583
2012å¹´12æ25æ¥,10000,10955,10000,12303
2012å¹´11æ26æ¥,10000,10779,10000,12575
2012å¹´10æ25æ¥,10000,11067,10000,12674
2012å¹´09æ25æ¥,10000,14138,10000,15978
2012å¹´08æ28æ¥,10000,22822,10000,25515
ç«ä»·æ¶é´,ä¸ªäººæä½æäº¤ä»·,ä¸ªäººå¹³åæäº¤ä»·,åä½æä½æäº¤ä»·,åä½å¹³åæäº¤ä»·
2022å¹´9æ26æ¥~new~,17000,18616,18600,20595
2022å¹´8æ25æ¥,17300,18593,16900,20372
2022å¹´7æ25æ¥,17000,18329,15000,20381
2022å¹´6æ27æ¥,16600,18311,10000,32871
2022å¹´5æ25æ¥,16500,17555,32000,40992
2022å¹´4æ25æ¥,15200,16221,38500,40464
2022å¹´3æ25æ¥,13900,15392,35700,37760
2022å¹´2æ25æ¥,12800,17105,33500,35970
2022å¹´1æ25æ¥,15000,19692,31000,32618
2021å¹´12æ27æ¥,18800,21543,28000,30775
2021å¹´11æ25æ¥,20000,21557,25900,28535
2021å¹´10æ25æ¥,20000,21524,24800,28819
2021å¹´9æ26æ¥,20000,21615,25000,29955
2021å¹´8æ25æ¥,20000,22687,28000,37841
2021å¹´7æ26æ¥,21000,24914,37800,49138
2021å¹´6æ25æ¥,22800,27542,45000,62128
2021å¹´5æ25æ¥,26500,29423,60900,63757
2021å¹´4æ25æ¥,25900,27142,53900,56205
2021å¹´3æ25æ¥,23500,24826,46200,48350
2021å¹´2æ25æ¥,21000,22494,39800,41983
2021å¹´1æ25æ¥,20000,21960,34800,39309
2020å¹´12æ25æ¥,19700,21711,37600,40356
2020å¹´11æ25æ¥,16300,18217,29400,31520
2020å¹´10æ26æ¥,13800,20025,23500,25366
2020å¹´9æ25æ¥,18500,26837,18200,19354
2020å¹´8æ25æ¥,25800,30005,14600,15555
2020å¹´7æ27æ¥,24800,26011,12000,13418
2020å¹´6æ28æ¥,20900,21929,10000,12446
2020å¹´5æ25æ¥,17800,18918,10000,12581
2020å¹´4æ26æ¥,15200,17820,10000,15306
2020å¹´3æ25æ¥,17200,18495,14800,16474
2020å¹´2æ25æ¥,16000,17086,13000,14612
2020å¹´2æ3æ¥,14800,16050,11800,13461
2019å¹´12æ25æ¥,13800,15461,10000,12411
2019å¹´11æ25æ¥,13200,15917,10000,12835
2019å¹´10æ25æ¥,10000,20306,10000,13567
2019å¹´9æ26æ¥,20200,24164,10000,17071
2019å¹´8æ26æ¥,21800,23779,14500,18542
2019å¹´7æ25æ¥,18800,22047,12100,18842
2019å¹´6æ25æ¥,14100,28966,10000,32803
2019å¹´5æ27æ¥,40000,42846,40100,59223
2019å¹´4æ25æ¥,38600,40395,55000,59376
2019å¹´3æ25æ¥,36000,37953,52100,55791
2019å¹´2æ25æ¥,33000,36240,47800,52206
2019å¹´1æ25æ¥,33900,39196,46000,51488
2018å¹´12æ25æ¥,37000,40985,42300,46032
2018å¹´11æ26æ¥,36800,39585,32300,35922
2018å¹´10æ25æ¥,33100,35434,24200,26597
2018å¹´9æ25æ¥,29700,32205,17200,22696
2018å¹´8æ27æ¥,25500,31654,12000,25880
2018å¹´7æ25æ¥,12100,56152,10000,70079
2018å¹´6æ25æ¥,52000,57283,62800,77611
2018å¹´5æ25æ¥,41300,44225,62000,68498
2018å¹´4æ25æ¥,32100,34455,51000,56158
2018å¹´3æ26æ¥,25300,26939,39100,41653
2018å¹´2æ26æ¥,22800,24560,32200,34718
2018å¹´1æ25æ¥,21000,25213,28000,30832
2017å¹´12æ25æ¥,18000,32312,24000,26123
2017å¹´11æ27æ¥,30700,34046,16800,18982
2017å¹´10æ25æ¥,30000,32449,13800,18038
2017å¹´9æ25æ¥,28800,30535,11800,15659
2017å¹´8æ25æ¥,26800,28561,10800,11663
2017å¹´7æ25æ¥,25000,26668,10100,11170
2017å¹´6æ26æ¥,23900,25498,10000,11136
2017å¹´5æ25æ¥,21500,22996,10000,11063
2017å¹´4æ25æ¥,18900,20127,10000,11061
2017å¹´3æ27æ¥,17300,18358,10000,10945
2017å¹´2æ28æ¥,15900,17419,10000,11114
2017å¹´1æ25æ¥,15100,17508,10000,11093
2016å¹´12æ26æ¥,15300,20591,10000,10905
2016å¹´11æ25æ¥,18600,22300,10000,11427
2016å¹´10æ25æ¥,19500,21551,10000,11269
2016å¹´9æ26æ¥,18100,19614,10000,11277
2016å¹´8æ25æ¥,15100,17330,10000,11114
2016å¹´7æ25æ¥,10100,24324,10000,11355
2016å¹´6æ27æ¥,23400,28541,10000,11420
2016å¹´5æ25æ¥,25000,27127,10000,11186
2016å¹´4æ25æ¥,23800,25701,10000,11496
2016å¹´3æ25æ¥,21100,23315,10000,11513
2016å¹´2æ25æ¥,19500,21884,10000,11560
2016å¹´1æ25æ¥,21000,25727,10000,12106
2015å¹´12æ25æ¥,24600,27077,10000,12009
2015å¹´11æ25æ¥,19000,20609,10000,11811
2015å¹´10æ26æ¥,16000,17487,10000,11254
2015å¹´9æ25æ¥,13500,16886,10000,11590
2015å¹´8æ25æ¥,10000,36231,10000,11878
2015å¹´7æ27æ¥,35000,37805,10000,12152
2015å¹´6æ25æ¥,26000,27672,10000,11822
2015å¹´5æ25æ¥,20200,21506,10000,11604
2015å¹´4æ27æ¥,16800,17798,10000,11593
2015å¹´3æ25æ¥,14500,15436,10000,11883
2015å¹´2æ25æ¥,13200,14331,10000,12391
2015å¹´1æ25æ¥,12000,13137,10000,11882
2014å¹´12æ25æ¥,10300,11421,10000,11604
2014å¹´11æ25æ¥,10000,11207,10000,11614
2014å¹´10æ25æ¥,10000,11442,10000,11836
2014å¹´9æ25æ¥,10000,12382,10000,11997
2014å¹´8æ26æ¥,10000,16654,10000,12375
2014å¹´7æ25æ¥,14800,18310,10000,12845
2014å¹´6æ26æ¥,16000,17024,10000,13134
2014å¹´5æ27æ¥,14500,15391,11000,12902
2014å¹´4æ26æ¥,13100,14074,10800,12452
2014å¹´3æ27æ¥,12300,13085,10300,12203
2014å¹´2æ25æ¥,11600,12777,10000,12494
2014å¹´1æ26æ¥,11500,12541,10000,12601
2013å¹´12æ25æ¥,10700,11959,10000,12958
2013å¹´11æ25æ¥,10000,11813,10000,14304
2013å¹´10æ25æ¥,10000,16384,10000,19510
2013å¹´09æ25æ¥,10000,30802,18000,20643
2013å¹´08æ26æ¥,23900,26599,15100,17385
2013å¹´07æ25æ¥,18700,20631,12500,14789
2013å¹´06æ25æ¥,14000,15743,10000,13117
2013å¹´05æ27æ¥,11600,12627,10000,12548
2013å¹´04æ25æ¥,10000,10998,10000,12017
2013å¹´03æ25æ¥,10000,10585,10000,11688
2013å¹´02æ25æ¥,10000,10573,10000,11762
2013å¹´01æ25æ¥,10000,10854,10000,12583
2012å¹´12æ25æ¥,10000,10955,10000,12303
2012å¹´11æ26æ¥,10000,10779,10000,12575
2012å¹´10æ25æ¥,10000,11067,10000,12674
2012å¹´09æ25æ¥,10000,14138,10000,15978
2012å¹´08æ28æ¥,10000,22822,10000,25515
